{
	"id": "90354c55-989b-4931-8e31-83668594952a",
	"name": "PortalTSMX-PROD",
	"values": [
		{
			"key": "urlRoot",
			"value": "https://isy5n9bqic.execute-api.us-west-2.amazonaws.com/prod",
			"enabled": true
		},
		{
			"key": "username",
			"value": "A52428577",
			"enabled": true
		},
		{
			"key": "locationId",
			"value": "1",
			"enabled": true
		},
		{
			"key": "itemTypeId",
			"value": "1",
			"enabled": true
		},
		{
			"key": "itemId",
			"value": "1",
			"enabled": true
		},
		{
			"key": "searchADString",
			"value": "hector.trujillo",
			"enabled": true
		},
		{
			"key": "userId",
			"value": "1",
			"enabled": true
		},
		{
			"key": "recurrenceId",
			"value": "1",
			"enabled": true
		},
		{
			"key": "reservationId",
			"value": "100",
			"enabled": true
		},
		{
			"key": "webexId",
			"value": "1",
			"enabled": true
		}
	],
	"_postman_variable_scope": "environment",
	"_postman_exported_at": "2020-03-11T16:48:47.038Z",
	"_postman_exported_using": "Postman/7.20.0"
}